
./octez-client --protocol ProtoALphaALphaALphaALphaALphaALphaALphaALphaDdp3zK --mode mockup --no-base-dir-warnings typecheck script tests_python/contracts_alpha/opcodes/loop_left_failwith.tz --details
Well typed
Gas remaining: 1039996.716 units remaining
{ parameter (or string nat) ;
  storage nat ;
  code { CAR
         /* [ or string nat ] */ ;
         LOOP_LEFT { FAILWITH /* [] */ }
         /* [ nat ] */ ;
         NIL operation
         /* [ list operation : nat ] */ ;
         PAIR
         /* [ pair (list operation) nat ] */ } }
