
./octez-client --protocol PtKathmankSpLLDALzWw7CGD2j2MtyveTwboEYokqUCP4a1LxMg --mode mockup --no-base-dir-warnings typecheck script tests_python/contracts_014/attic/after_strategy.tz --details
Well typed
Gas remaining: 1039991.203 units remaining
{ parameter nat ;
  storage (pair (pair nat bool) timestamp) ;
  code { DUP
         /* [ pair nat (pair nat bool) timestamp : pair nat (pair nat bool) timestamp ] */ ;
         CAR
         /* [ nat : pair nat (pair nat bool) timestamp ] */ ;
         DIP { CDDR ;
               DUP
               /* [ timestamp : timestamp ] */ ;
               NOW
               /* [ timestamp : timestamp : timestamp ] */ ;
               CMPGT }
         /* [ nat : bool : timestamp ] */ ;
         PAIR
         /* [ pair nat bool : timestamp ] */ ;
         PAIR
         /* [ pair (pair nat bool) timestamp ] */ ;
         NIL operation
         /* [ list operation : pair (pair nat bool) timestamp ] */ ;
         PAIR
         /* [ pair (list operation) (pair nat bool) timestamp ] */ } }
