
./octez-client --protocol PtKathmankSpLLDALzWw7CGD2j2MtyveTwboEYokqUCP4a1LxMg --mode mockup --no-base-dir-warnings typecheck script tests_python/contracts_014/macros/unpair_macro.tz --details
Well typed
Gas remaining: 1039977.130 units remaining
{ parameter (unit :param_unit) ;
  storage (unit :u1) ;
  code { DROP
         /* [] */ ;
         UNIT :u4 @a4
         /* [ unit ] */ ;
         UNIT :u3 @a3
         /* [ unit : unit ] */ ;
         UNIT :u2 @a2
         /* [ unit : unit : unit ] */ ;
         UNIT :u1 @a1
         /* [ unit : unit : unit : unit ] */ ;
         PAIR
         /* [ pair unit unit : unit : unit ] */ ;
         UNPAIR @x1 @x2
         /* [ unit : unit : unit : unit ] */ ;
         PPAIPAIR @p1 %x1 %x2 %x3 %x4 ;
         UNPPAIPAIR %x1 % %x3 %x4 @uno @due @tre @quattro ;
         PAPAPAIR @p2 %x1 %x2 %x3 %x4 ;
         UNPAPAPAIR @un @deux @trois @quatre ;
         PAPPAIIR @p3 %x1 %x2 %x3 %x4 ;
         UNPAPPAIIR @one @two @three @four ;
         DIP { DROP /* [ unit : unit ] */ ; DROP /* [ unit ] */ ; DROP /* [] */ }
         /* [ unit ] */ ;
         NIL operation
         /* [ list operation : unit ] */ ;
         PAIR
         /* [ pair (list operation) unit ] */ } }
