
./octez-client --protocol PtKathmankSpLLDALzWw7CGD2j2MtyveTwboEYokqUCP4a1LxMg --mode mockup --no-base-dir-warnings typecheck script tests_python/contracts_014/opcodes/address.tz --details
Well typed
Gas remaining: 1039996.754 units remaining
{ parameter (contract unit) ;
  storage (option address) ;
  code { CAR
         /* [ contract unit ] */ ;
         ADDRESS
         /* [ address ] */ ;
         SOME
         /* [ option address ] */ ;
         NIL operation
         /* [ list operation : option address ] */ ;
         PAIR
         /* [ pair (list operation) (option address) ] */ } }
