
./octez-client --protocol PtKathmankSpLLDALzWw7CGD2j2MtyveTwboEYokqUCP4a1LxMg --mode mockup --no-base-dir-warnings typecheck script tests_python/contracts_014/opcodes/ticket_split.tz --details
Well typed
Gas remaining: 1039979.558 units remaining
{ parameter (ticket nat) ;
  storage unit ;
  code { CAR
         /* [ ticket nat ] */ ;
         PUSH (pair nat nat) (Pair 1 2)
         /* [ pair nat nat : ticket nat ] */ ;
         SWAP
         /* [ ticket nat : pair nat nat ] */ ;
         SPLIT_TICKET
         /* [ option (pair (ticket nat) (ticket nat)) ] */ ;
         ASSERT_SOME ;
         UNPAIR
         /* [ ticket nat : ticket nat ] */ ;
         READ_TICKET
         /* [ pair address nat nat : ticket nat : ticket nat ] */ ;
         CDDR ;
         PUSH nat 1
         /* [ nat : nat : ticket nat : ticket nat ] */ ;
         ASSERT_CMPEQ ;
         DROP
         /* [ ticket nat ] */ ;
         READ_TICKET
         /* [ pair address nat nat : ticket nat ] */ ;
         CDDR ;
         PUSH nat 2
         /* [ nat : nat : ticket nat ] */ ;
         ASSERT_CMPEQ ;
         DROP
         /* [] */ ;
         UNIT
         /* [ unit ] */ ;
         NIL operation
         /* [ list operation : unit ] */ ;
         PAIR
         /* [ pair (list operation) unit ] */ } }
