
./octez-client --protocol PtLimaPtLMwfNinJi9rCfDPWea8dFgTZ1MeJ9f1m2SRic6ayiwW --mode mockup --no-base-dir-warnings typecheck script tests_python/contracts_015/mini_scenarios/add_clear_tickets.tz --details
Well typed
Gas remaining: 1039988.509 units remaining
{ parameter (or (pair %add nat string) (unit %clear)) ;
  storage (list (ticket string)) ;
  code { UNPAIR
         /* [ or (pair nat string) unit : list (ticket string) ] */ ;
         IF_LEFT
           { UNPAIR
             /* [ nat : string : list (ticket string) ] */ ;
             DIG 2
             /* [ list (ticket string) : nat : string ] */ ;
             SWAP
             /* [ nat : list (ticket string) : string ] */ ;
             DIG 2
             /* [ string : nat : list (ticket string) ] */ ;
             TICKET
             /* [ option (ticket string) : list (ticket string) ] */ ;
             ASSERT_SOME ;
             CONS
             /* [ list (ticket string) ] */ ;
             NIL operation
             /* [ list operation : list (ticket string) ] */ ;
             PAIR
             /* [ pair (list operation) (list (ticket string)) ] */ }
           { DROP 2
             /* [] */ ;
             NIL (ticket string)
             /* [ list (ticket string) ] */ ;
             NIL operation
             /* [ list operation : list (ticket string) ] */ ;
             PAIR
             /* [ pair (list operation) (list (ticket string)) ] */ } } }
