
./octez-client --protocol PtLimaPtLMwfNinJi9rCfDPWea8dFgTZ1MeJ9f1m2SRic6ayiwW --mode mockup --no-base-dir-warnings typecheck script tests_python/contracts_015/macros/max_in_list.tz --details
Well typed
Gas remaining: 1039987.861 units remaining
{ parameter (list int) ;
  storage (option int) ;
  code { CAR
         /* [ list int ] */ ;
         DIP { NONE int /* [ option int ] */ }
         /* [ list int : option int ] */ ;
         ITER { SWAP
                /* [ option int : int ] */ ;
                IF_NONE
                  { SOME /* [ option int ] */ }
                  { DIP { DUP /* [ int : int ] */ }
                    /* [ int : int : int ] */ ;
                    DUP
                    /* [ int : int : int : int ] */ ;
                    DIP { SWAP /* [ int : int : int ] */ }
                    /* [ int : int : int : int ] */ ;
                    CMPLE ;
                    IF { DROP /* [ int ] */ } { DIP { DROP /* [] */ } /* [ int ] */ } ;
                    SOME
                    /* [ option int ] */ } }
         /* [ option int ] */ ;
         NIL operation
         /* [ list operation : option int ] */ ;
         PAIR
         /* [ pair (list operation) (option int) ] */ } }
