
./octez-client --protocol PtLimaPtLMwfNinJi9rCfDPWea8dFgTZ1MeJ9f1m2SRic6ayiwW --mode mockup --no-base-dir-warnings typecheck script tests_python/contracts_015/opcodes/sub_timestamp_delta.tz --details
Well typed
Gas remaining: 1039995.013 units remaining
{ parameter (pair timestamp int) ;
  storage timestamp ;
  code { CAR
         /* [ pair timestamp int ] */ ;
         DUP
         /* [ pair timestamp int : pair timestamp int ] */ ;
         CAR
         /* [ timestamp : pair timestamp int ] */ ;
         DIP { CDR /* [ int ] */ }
         /* [ timestamp : int ] */ ;
         SUB
         /* [ timestamp ] */ ;
         NIL operation
         /* [ list operation : timestamp ] */ ;
         PAIR
         /* [ pair (list operation) timestamp ] */ } }
