
./octez-client --protocol PtLimaPtLMwfNinJi9rCfDPWea8dFgTZ1MeJ9f1m2SRic6ayiwW --mode mockup --no-base-dir-warnings typecheck script tests_python/contracts_015/attic/concat.tz --details
Well typed
Gas remaining: 1039993.578 units remaining
{ parameter string ;
  storage string ;
  code { DUP
         /* [ pair string string : pair string string ] */ ;
         DIP { CDR
               /* [ string ] */ ;
               NIL string
               /* [ list string : string ] */ ;
               SWAP
               /* [ string : list string ] */ ;
               CONS
               /* [ list string ] */ }
         /* [ pair string string : list string ] */ ;
         CAR
         /* [ string : list string ] */ ;
         CONS
         /* [ list string ] */ ;
         CONCAT
         /* [ string ] */ ;
         NIL operation
         /* [ list operation : string ] */ ;
         PAIR
         /* [ pair (list operation) string ] */ } }
