
./octez-client --protocol PtLimaPtLMwfNinJi9rCfDPWea8dFgTZ1MeJ9f1m2SRic6ayiwW --mode mockup --no-base-dir-warnings typecheck script tests_python/contracts_015/attic/at_least.tz --details
Well typed
Gas remaining: 1039993.870 units remaining
{ parameter unit ;
  storage mutez ;
  code { CDR
         /* [ mutez ] */ ;
         DUP
         /* [ mutez : mutez ] */ ;
         AMOUNT
         /* [ mutez : mutez : mutez ] */ ;
         CMPLT ;
         IF { FAIL }
            { NIL operation
              /* [ list operation : mutez ] */ ;
              PAIR
              /* [ pair (list operation) mutez ] */ } } }
