
./octez-client --protocol PtLimaPtLMwfNinJi9rCfDPWea8dFgTZ1MeJ9f1m2SRic6ayiwW --mode mockup --no-base-dir-warnings typecheck script tests_python/contracts_015/mini_scenarios/create_contract_simple.tz --details
Well typed
Gas remaining: 1039991.809 units remaining
{ parameter unit ;
  storage unit ;
  code { CAR
         /* [ string ] */ ;
         PUSH string "foo" /* [ pair (list operation) string ] */
         /* [ list operation : string ] */ ;
         PUSH mutez 0
         /* [ mutez : string : unit ] */ ;
         NONE key_hash
         /* [ option key_hash : mutez : string : unit ] */ ;
         CREATE_CONTRACT
           { parameter string ;
             storage string ;
             code { CAR ; NIL operation ; PAIR } }
         /* [ operation : address : unit ] */ ;
         DROP
         /* [ address : unit ] */ ;
         DROP
         /* [ unit ] */ ;
         NIL operation
         /* [ list operation : unit ] */ ;
         PAIR
         /* [ pair (list operation) unit ] */ } }
