
./octez-client --mode mockup --wait none originate contract ticketer transferring 0 from bootstrap1 running file:./tezt/tests/contracts/proto_alpha/tickets_send.tz --init Unit --burn-cap 1
Node is bootstrapped.
Estimated gas: 1441.228 units (will add 100 for safety)
Estimated storage: 415 bytes added (will add 20 for safety)
Operation successfully injected in the node.
Operation hash is '[OPERATION_HASH]'
NOT waiting for the operation to be included.
Use command
  octez-client wait for [OPERATION_HASH] to be included --confirmations 1 --branch [BLOCK_HASH]
and/or an external block explorer to make sure that it has been included.
This sequence of operations was run:
  Manager signed operations:
    From: [PUBLIC_KEY_HASH]
    Fee to the baker: ꜩ0.00054
    Expected counter: 1
    Gas limit: 1542
    Storage limit: 435 bytes
    Balance updates:
      [PUBLIC_KEY_HASH] ... -ꜩ0.00054
      payload fees(the block proposer) ....... +ꜩ0.00054
    Origination:
      From: [PUBLIC_KEY_HASH]
      Credit: ꜩ0
      Script:
        { parameter (pair address nat) ;
          storage unit ;
          code { CAR ;
                 UNPAIR ;
                 CONTRACT (ticket string) ;
                 IF_NONE
                   { PUSH string "Contract not found" ; FAILWITH }
                   { PUSH mutez 0 ;
                     DIG 2 ;
                     PUSH string "Ticket" ;
                     TICKET ;
                     ASSERT_SOME ;
                     TRANSFER_TOKENS ;
                     PUSH unit Unit ;
                     NIL operation ;
                     DIG 2 ;
                     CONS ;
                     PAIR } } }
        Initial storage: Unit
        No delegate for this contract
        This origination was successfully applied
        Originated contracts:
          [CONTRACT_HASH]
        Storage size: 158 bytes
        Paid storage size diff: 158 bytes
        Consumed gas: 1441.228
        Balance updates:
          [PUBLIC_KEY_HASH] ... -ꜩ0.0395
          storage fees ........................... +ꜩ0.0395
          [PUBLIC_KEY_HASH] ... -ꜩ0.06425
          storage fees ........................... +ꜩ0.06425

New contract [CONTRACT_HASH] originated.
Contract memorized as ticketer.

./octez-client --mode mockup --wait none originate contract bag transferring 0 from bootstrap1 running file:./tezt/tests/contracts/proto_alpha/tickets_bag_implicit.tz --init '{}' --burn-cap 1
Node is bootstrapped.
Estimated gas: 1445.657 units (will add 100 for safety)
Estimated storage: 440 bytes added (will add 20 for safety)
Operation successfully injected in the node.
Operation hash is '[OPERATION_HASH]'
NOT waiting for the operation to be included.
Use command
  octez-client wait for [OPERATION_HASH] to be included --confirmations 1 --branch [BLOCK_HASH]
and/or an external block explorer to make sure that it has been included.
This sequence of operations was run:
  Manager signed operations:
    From: [PUBLIC_KEY_HASH]
    Fee to the baker: ꜩ0.000565
    Expected counter: 2
    Gas limit: 1546
    Storage limit: 460 bytes
    Balance updates:
      [PUBLIC_KEY_HASH] ... -ꜩ0.000565
      payload fees(the block proposer) ....... +ꜩ0.000565
    Origination:
      From: [PUBLIC_KEY_HASH]
      Credit: ꜩ0
      Script:
        { parameter (or (ticket %save string) (address %send)) ;
          storage (list (ticket string)) ;
          code { UNPAIR ;
                 IF_LEFT
                   { CONS ; NIL operation ; PAIR }
                   { SWAP ;
                     IF_CONS
                       { DIG 2 ;
                         CONTRACT (ticket string) ;
                         ASSERT_SOME ;
                         PUSH mutez 0 ;
                         DIG 2 ;
                         TRANSFER_TOKENS ;
                         NIL operation ;
                         SWAP ;
                         CONS ;
                         PAIR }
                       { PUSH string "no ticket to send" ; FAILWITH } } } }
        Initial storage: {}
        No delegate for this contract
        This origination was successfully applied
        Originated contracts:
          [CONTRACT_HASH]
        Storage size: 183 bytes
        Paid storage size diff: 183 bytes
        Consumed gas: 1445.657
        Balance updates:
          [PUBLIC_KEY_HASH] ... -ꜩ0.04575
          storage fees ........................... +ꜩ0.04575
          [PUBLIC_KEY_HASH] ... -ꜩ0.06425
          storage fees ........................... +ꜩ0.06425

New contract [CONTRACT_HASH] originated.
Contract memorized as bag.

./octez-client --mode mockup --wait none transfer 0 from bootstrap1 to '[CONTRACT_HASH]' --burn-cap 1 --arg 'Pair "[PUBLIC_KEY_HASH]" 1'
Node is bootstrapped.
Estimated gas: 3588.163 units (will add 100 for safety)
Estimated storage: 66 bytes added (will add 20 for safety)
Operation successfully injected in the node.
Operation hash is '[OPERATION_HASH]'
NOT waiting for the operation to be included.
Use command
  octez-client wait for [OPERATION_HASH] to be included --confirmations 1 --branch [BLOCK_HASH]
and/or an external block explorer to make sure that it has been included.
This sequence of operations was run:
  Manager signed operations:
    From: [PUBLIC_KEY_HASH]
    Fee to the baker: ꜩ0.000667
    Expected counter: 3
    Gas limit: 3689
    Storage limit: 86 bytes
    Balance updates:
      [PUBLIC_KEY_HASH] ... -ꜩ0.000667
      payload fees(the block proposer) ....... +ꜩ0.000667
    Transaction:
      Amount: ꜩ0
      From: [PUBLIC_KEY_HASH]
      To: [CONTRACT_HASH]
      Parameter: (Pair "[PUBLIC_KEY_HASH]" 1)
      This transaction was successfully applied
      Updated storage: Unit
      Storage size: 158 bytes
      Paid storage size diff: 66 bytes
      Consumed gas: 2588.410
      Balance updates:
        [PUBLIC_KEY_HASH] ... -ꜩ0.0165
        storage fees ........................... +ꜩ0.0165
      Internal operations:
        Internal Transaction:
          Amount: ꜩ0
          From: [CONTRACT_HASH]
          To: [PUBLIC_KEY_HASH]
          Parameter: (Pair 0x013c68b1807d42e2e2cb5a4dddb457b75dbf4a4dce00 (Pair "Ticket" 1))
          This transaction was successfully applied
          Consumed gas: 1000.398
          Ticket updates:
            Ticketer: [CONTRACT_HASH]
            Content type: string
            Content: "Ticket"
            Account updates:
              [PUBLIC_KEY_HASH] ... +1


./octez-client --mode mockup get ticket balance for bootstrap1 with ticketer '[CONTRACT_HASH]' and type string and content '"Ticket"'
1

./octez-client --mode mockup --wait none transfer 1 tickets from bootstrap1 to '[CONTRACT_HASH]' with entrypoint save and contents '"Ticket"' and type string and ticketer '[CONTRACT_HASH]' --burn-cap 1
Node is bootstrapped.
Estimated gas: 4906.419 units (will add 100 for safety)
Estimated storage: 44 bytes added (will add 20 for safety)
Operation successfully injected in the node.
Operation hash is '[OPERATION_HASH]'
NOT waiting for the operation to be included.
Use command
  octez-client wait for [OPERATION_HASH] to be included --confirmations 1 --branch [BLOCK_HASH]
and/or an external block explorer to make sure that it has been included.
This sequence of operations was run:
  Manager signed operations:
    From: [PUBLIC_KEY_HASH]
    Fee to the baker: ꜩ0.000799
    Expected counter: 4
    Gas limit: 5007
    Storage limit: 64 bytes
    Balance updates:
      [PUBLIC_KEY_HASH] ... -ꜩ0.000799
      payload fees(the block proposer) ....... +ꜩ0.000799
    Transfer tickets:
      Ticket content: "Ticket"
      Ticket content type: string
      Ticket ticketer: [CONTRACT_HASH]
      Ticket amount: 1
      Destination: [CONTRACT_HASH]
      Entrypoint: save
      From: [PUBLIC_KEY_HASH]
      This tickets transfer was successfully applied
      Ticket updates:
        Ticketer: [CONTRACT_HASH]
        Content type: string
        Content: "Ticket"
        Account updates:
          [PUBLIC_KEY_HASH] ... -1
      Consumed gas: 2096.226
      Internal operations:
        Internal Transaction:
          Amount: ꜩ0
          From: [PUBLIC_KEY_HASH]
          To: [CONTRACT_HASH]
          Entrypoint: save
          Parameter: (Pair 0x013c68b1807d42e2e2cb5a4dddb457b75dbf4a4dce00 (Pair "Ticket" 1))
          This transaction was successfully applied
          Updated storage:
            { Pair 0x013c68b1807d42e2e2cb5a4dddb457b75dbf4a4dce00 (Pair "Ticket" 1) }
          Storage size: 227 bytes
          Paid storage size diff: 44 bytes
          Consumed gas: 2810.838
          Balance updates:
            [PUBLIC_KEY_HASH] ... -ꜩ0.011
            storage fees ........................... +ꜩ0.011
          Ticket updates:
            Ticketer: [CONTRACT_HASH]
            Content type: string
            Content: "Ticket"
            Account updates:
              [CONTRACT_HASH] ... +1


./octez-client --mode mockup get ticket balance for bootstrap1 with ticketer '[CONTRACT_HASH]' and type string and content '"Ticket"'
0

./octez-client --mode mockup get ticket balance for '[CONTRACT_HASH]' with ticketer '[CONTRACT_HASH]' and type string and content '"Ticket"'
1

./octez-client --mode mockup --wait none transfer 0 from bootstrap1 to '[CONTRACT_HASH]' --burn-cap 1 --entrypoint send --arg '"[PUBLIC_KEY_HASH]"'
Node is bootstrapped.
Estimated gas: 4240.926 units (will add 100 for safety)
Estimated storage: no bytes added
Operation successfully injected in the node.
Operation hash is '[OPERATION_HASH]'
NOT waiting for the operation to be included.
Use command
  octez-client wait for [OPERATION_HASH] to be included --confirmations 1 --branch [BLOCK_HASH]
and/or an external block explorer to make sure that it has been included.
This sequence of operations was run:
  Manager signed operations:
    From: [PUBLIC_KEY_HASH]
    Fee to the baker: ꜩ0.000734
    Expected counter: 5
    Gas limit: 4341
    Storage limit: 0 bytes
    Balance updates:
      [PUBLIC_KEY_HASH] ... -ꜩ0.000734
      payload fees(the block proposer) ....... +ꜩ0.000734
    Transaction:
      Amount: ꜩ0
      From: [PUBLIC_KEY_HASH]
      To: [CONTRACT_HASH]
      Entrypoint: send
      Parameter: "[PUBLIC_KEY_HASH]"
      This transaction was successfully applied
      Updated storage: {}
      Storage size: 183 bytes
      Consumed gas: 3241.173
      Ticket updates:
        Ticketer: [CONTRACT_HASH]
        Content type: string
        Content: "Ticket"
        Account updates:
          [CONTRACT_HASH] ... -1
      Internal operations:
        Internal Transaction:
          Amount: ꜩ0
          From: [CONTRACT_HASH]
          To: [PUBLIC_KEY_HASH]
          Parameter: (Pair 0x013c68b1807d42e2e2cb5a4dddb457b75dbf4a4dce00 (Pair "Ticket" 1))
          This transaction was successfully applied
          Consumed gas: 1000.398
          Ticket updates:
            Ticketer: [CONTRACT_HASH]
            Content type: string
            Content: "Ticket"
            Account updates:
              [PUBLIC_KEY_HASH] ... +1


./octez-client --mode mockup get ticket balance for bootstrap2 with ticketer '[CONTRACT_HASH]' and type string and content '"Ticket"'
1

./octez-client --mode mockup get ticket balance for '[CONTRACT_HASH]' with ticketer '[CONTRACT_HASH]' and type string and content '"Ticket"'
0
