
./octez-client --mode mockup --wait none originate contract ticketer transferring 0 from bootstrap1 running file:./tezt/tests/contracts/proto_alpha/tickets_send.tz --init Unit --burn-cap 1
Node is bootstrapped.
Estimated gas: 1441.228 units (will add 100 for safety)
Estimated storage: 415 bytes added (will add 20 for safety)
Operation successfully injected in the node.
Operation hash is '[OPERATION_HASH]'
NOT waiting for the operation to be included.
Use command
  octez-client wait for [OPERATION_HASH] to be included --confirmations 1 --branch [BLOCK_HASH]
and/or an external block explorer to make sure that it has been included.
This sequence of operations was run:
  Manager signed operations:
    From: [PUBLIC_KEY_HASH]
    Fee to the baker: ꜩ0.00054
    Expected counter: 1
    Gas limit: 1542
    Storage limit: 435 bytes
    Balance updates:
      [PUBLIC_KEY_HASH] ... -ꜩ0.00054
      payload fees(the block proposer) ....... +ꜩ0.00054
    Origination:
      From: [PUBLIC_KEY_HASH]
      Credit: ꜩ0
      Script:
        { parameter (pair address nat) ;
          storage unit ;
          code { CAR ;
                 UNPAIR ;
                 CONTRACT (ticket string) ;
                 IF_NONE
                   { PUSH string "Contract not found" ; FAILWITH }
                   { PUSH mutez 0 ;
                     DIG 2 ;
                     PUSH string "Ticket" ;
                     TICKET ;
                     ASSERT_SOME ;
                     TRANSFER_TOKENS ;
                     PUSH unit Unit ;
                     NIL operation ;
                     DIG 2 ;
                     CONS ;
                     PAIR } } }
        Initial storage: Unit
        No delegate for this contract
        This origination was successfully applied
        Originated contracts:
          [CONTRACT_HASH]
        Storage size: 158 bytes
        Paid storage size diff: 158 bytes
        Consumed gas: 1441.228
        Balance updates:
          [PUBLIC_KEY_HASH] ... -ꜩ0.0395
          storage fees ........................... +ꜩ0.0395
          [PUBLIC_KEY_HASH] ... -ꜩ0.06425
          storage fees ........................... +ꜩ0.06425

New contract [CONTRACT_HASH] originated.
Contract memorized as ticketer.

./octez-client --mode mockup --wait none originate contract blackhole transferring 0 from bootstrap1 running file:./tezt/tests/contracts/proto_alpha/tickets_blackhole.tz --init Unit --burn-cap 1
Node is bootstrapped.
Estimated gas: 1410.196 units (will add 100 for safety)
Estimated storage: 308 bytes added (will add 20 for safety)
Operation successfully injected in the node.
Operation hash is '[OPERATION_HASH]'
NOT waiting for the operation to be included.
Use command
  octez-client wait for [OPERATION_HASH] to be included --confirmations 1 --branch [BLOCK_HASH]
and/or an external block explorer to make sure that it has been included.
This sequence of operations was run:
  Manager signed operations:
    From: [PUBLIC_KEY_HASH]
    Fee to the baker: ꜩ0.00043
    Expected counter: 2
    Gas limit: 1511
    Storage limit: 328 bytes
    Balance updates:
      [PUBLIC_KEY_HASH] ... -ꜩ0.00043
      payload fees(the block proposer) ....... +ꜩ0.00043
    Origination:
      From: [PUBLIC_KEY_HASH]
      Credit: ꜩ0
      Script:
        { parameter (ticket %ticket string) ;
          storage unit ;
          code { CDR ; NIL operation ; PAIR } }
        Initial storage: Unit
        No delegate for this contract
        This origination was successfully applied
        Originated contracts:
          [CONTRACT_HASH]
        Storage size: 51 bytes
        Paid storage size diff: 51 bytes
        Consumed gas: 1410.196
        Balance updates:
          [PUBLIC_KEY_HASH] ... -ꜩ0.01275
          storage fees ........................... +ꜩ0.01275
          [PUBLIC_KEY_HASH] ... -ꜩ0.06425
          storage fees ........................... +ꜩ0.06425

New contract [CONTRACT_HASH] originated.
Contract memorized as blackhole.

./octez-client --mode mockup --wait none transfer 0 from bootstrap1 to '[CONTRACT_HASH]' --burn-cap 1 --arg 'Pair "[PUBLIC_KEY_HASH]" 1'
Node is bootstrapped.
Estimated gas: 3588.163 units (will add 100 for safety)
Estimated storage: 66 bytes added (will add 20 for safety)
Operation successfully injected in the node.
Operation hash is '[OPERATION_HASH]'
NOT waiting for the operation to be included.
Use command
  octez-client wait for [OPERATION_HASH] to be included --confirmations 1 --branch [BLOCK_HASH]
and/or an external block explorer to make sure that it has been included.
This sequence of operations was run:
  Manager signed operations:
    From: [PUBLIC_KEY_HASH]
    Fee to the baker: ꜩ0.000667
    Expected counter: 3
    Gas limit: 3689
    Storage limit: 86 bytes
    Balance updates:
      [PUBLIC_KEY_HASH] ... -ꜩ0.000667
      payload fees(the block proposer) ....... +ꜩ0.000667
    Transaction:
      Amount: ꜩ0
      From: [PUBLIC_KEY_HASH]
      To: [CONTRACT_HASH]
      Parameter: (Pair "[PUBLIC_KEY_HASH]" 1)
      This transaction was successfully applied
      Updated storage: Unit
      Storage size: 158 bytes
      Paid storage size diff: 66 bytes
      Consumed gas: 2588.410
      Balance updates:
        [PUBLIC_KEY_HASH] ... -ꜩ0.0165
        storage fees ........................... +ꜩ0.0165
      Internal operations:
        Internal Transaction:
          Amount: ꜩ0
          From: [CONTRACT_HASH]
          To: [PUBLIC_KEY_HASH]
          Parameter: (Pair 0x013c68b1807d42e2e2cb5a4dddb457b75dbf4a4dce00 (Pair "Ticket" 1))
          This transaction was successfully applied
          Consumed gas: 1000.398
          Ticket updates:
            Ticketer: [CONTRACT_HASH]
            Content type: string
            Content: "Ticket"
            Account updates:
              [PUBLIC_KEY_HASH] ... +1


./octez-client --mode mockup --wait none transfer 0 from bootstrap1 to '[CONTRACT_HASH]' --burn-cap 1 --arg 'Pair "[CONTRACT_HASH]" 1'
Node is bootstrapped.
Estimated gas: 5793.484 units (will add 100 for safety)
Estimated storage: 66 bytes added (will add 20 for safety)
Operation successfully injected in the node.
Operation hash is '[OPERATION_HASH]'
NOT waiting for the operation to be included.
Use command
  octez-client wait for [OPERATION_HASH] to be included --confirmations 1 --branch [BLOCK_HASH]
and/or an external block explorer to make sure that it has been included.
This sequence of operations was run:
  Manager signed operations:
    From: [PUBLIC_KEY_HASH]
    Fee to the baker: ꜩ0.000888
    Expected counter: 4
    Gas limit: 5894
    Storage limit: 86 bytes
    Balance updates:
      [PUBLIC_KEY_HASH] ... -ꜩ0.000888
      payload fees(the block proposer) ....... +ꜩ0.000888
    Transaction:
      Amount: ꜩ0
      From: [PUBLIC_KEY_HASH]
      To: [CONTRACT_HASH]
      Parameter: (Pair "[CONTRACT_HASH]" 1)
      This transaction was successfully applied
      Updated storage: Unit
      Storage size: 158 bytes
      Paid storage size diff: 66 bytes
      Consumed gas: 3040.897
      Balance updates:
        [PUBLIC_KEY_HASH] ... -ꜩ0.0165
        storage fees ........................... +ꜩ0.0165
      Internal operations:
        Internal Transaction:
          Amount: ꜩ0
          From: [CONTRACT_HASH]
          To: [CONTRACT_HASH]
          Parameter: (Pair 0x013c68b1807d42e2e2cb5a4dddb457b75dbf4a4dce00 (Pair "Ticket" 1))
          This transaction was successfully applied
          Updated storage: Unit
          Storage size: 51 bytes
          Consumed gas: 2753.748

